<?xml version="1.0" encoding="UTF-8"?>
<session version="1.0">
<refactoring accessors="true" comment="Delete element from project &apos;RecursionDemo&apos;&#x0A;- Original project: &apos;RecursionDemo&apos;&#x0A;- Original element: &apos;Fibonacci.java&apos;" description="Delete element" element1="/src&lt;{Fibonacci.java" elements="1" flags="589830" id="org.eclipse.jdt.ui.delete" resources="0" stamp="1435003224431" subPackages="false" version="1.0"/>
</session>